{
  "postHistory": [
    {
      "id": 1,
      "title": "My new car",
      "author": "McQueen",
      "views": 23,
      "likes": 84,
      "created": "2014-09-20"
    },
    {
      "id": 2,
      "title": "Stack-overflow is down, can i go home?",
      "author": "Rick",
      "views": 97,
      "likes": 12,
      "created": "2014-09-20"
    },
    {
      "id": 3,
      "title": "Es6 adventures - first thoughts",
      "author": "Amanda",
      "views": 345,
      "likes": 77,
      "created": "2011-03-5"
    },
    {
      "id": 4,
      "title": "Angular devs wanted. Anyone?",
      "author": "Robert",
      "views": 0,
      "likes": 0,
      "created": "2014-09-20"
    },
    {
      "id": 5,
      "title": "One webpack, to build them all",
      "author": "Mateusz",
      "views": 30,
      "likes": 68,
      "created": "2014-09-20"
    },
    {
      "id": 6,
      "title": "Tea or cofeee?",
      "author": "Walter",
      "views": 32,
      "likes": 3,
      "created": "2014-09-20"
    },
    {
      "id": 7,
      "title": "Brace yourselves, js is coming!",
      "author": "Mike",
      "views": 684,
      "likes": 365,
      "created": "2014-09-20"
    },
    {
      "id": 8,
      "title": "Take-away pizza, which one?",
      "author": "Jacob",
      "views": 978,
      "likes": 324,
      "created": "2014-09-20"
    },
    {
      "id": 9,
      "title": "Material-UI and why not to use it",
      "author": "Raphael",
      "views": 5945,
      "likes": 523,
      "created": "2014-09-20"
    },
    {
      "id": 10,
      "title": "Tree-shaking - yes or no",
      "author": "Stephen",
      "views": 384,
      "likes": 2,
      "created": "2014-09-20"
    },
    {
      "id": 11,
      "title": "My and my dog",
      "author": "Renata",
      "views": 654,
      "likes": 33,
      "created": "2011-01-01"
    },
    {
      "id": 12,
      "author": "Stephen",
      "title": "Programming 101",
      "views": 42,
      "likes": 43,
      "created": "2008-10-16"
    },
    {
      "id": 13,
      "author": "Simon",
      "title": "ESling - maintaining code quality",
      "views": 343,
      "likes": 32,
      "created": "2004-01-09"
    },
    {
      "id": 22,
      "author": "Mateusz",
      "title": "Presentation",
      "views": 12332,
      "likes": 222,
      "created": "2015-10-02"
    },
    {
      "id": 23,
      "author": "Stephanie",
      "title": "Sorting Alghoritms",
      "views": 10293,
      "likes": 123321,
      "created": "2014-10-09"
    }
  ],
  "loggedIn": {
    "name": "Mateusz"
  }
}